[
{"id":98305,"title":"Aeropuerto-T4"},
{"id":70103,"title":"Alcala de Henares"},
{"id":70107,"title":"Alcala de Henares-Universidad"},
{"id":19003,"title":"Alcobendas-S.Sebast. de los Reyes"},
{"id":35605,"title":"Alcorcon"},
{"id":12002,"title":"Alpedrete"},
{"id":35600,"title":"Aluche"},
{"id":60200,"title":"Aranjuez"},
{"id":10001,"title":"Aravaca"},
{"id":70002,"title":"Asamblea de Madrid-Entrevias"},
{"id":18000,"title":"Atocha"},
{"id":70105,"title":"Azuqueca"},
{"id":17009,"title":"Cantoblanco Universidad"},
{"id":12006,"title":"Cercedilla"},
{"id":17000,"title":"Chamartin"},
{"id":60105,"title":"Ciempozuelos"},
{"id":12004,"title":"Collado Mediano"},
{"id":17005,"title":"Colmenar Viejo"},
{"id":70108,"title":"Coslada"},
{"id":12023,"title":"Cotos"},
{"id":35603,"title":"Cuatro Vientos"},
{"id":18004,"title":"Delicias"},
{"id":35702,"title":"Doce de Octubre"},
{"id":10010,"title":"El Barrial-C.Com.Pozuelo"},
{"id":60109,"title":"El Casar"},
{"id":10203,"title":"El Escorial"},
{"id":17003,"title":"El Goloso"},
{"id":70003,"title":"El Pozo"},
{"id":35609,"title":"Embajadores"},
{"id":35601,"title":"Fanjul"},
{"id":17001,"title":"Fuencarral"},
{"id":35002,"title":"Fuenlabrada"},
{"id":98003,"title":"Fuente de la Mora"},
{"id":10104,"title":"Galapagar-La Navata"},
{"id":37011,"title":"Getafe -Sector Tres"},
{"id":37002,"title":"Getafe Centro"},
{"id":60102,"title":"Getafe Industrial"},
{"id":70200,"title":"Guadalajara"},
{"id":35012,"title":"Humanes"},
{"id":70111,"title":"La Garena"},
{"id":35010,"title":"La Serna"},
{"id":35608,"title":"Laguna"},
{"id":35602,"title":"Las Aguilas"},
{"id":37010,"title":"Las Margaritas Universidad"},
{"id":10101,"title":"Las Matas"},
{"id":35610,"title":"Las Retamas"},
{"id":10005,"title":"Las Rozas"},
{"id":10202,"title":"Las Zorreras"},
{"id":35001,"title":"Leganes"},
{"id":12005,"title":"Los Molinos"},
{"id":12001,"title":"Los Negrales"},
{"id":10007,"title":"Majadahonda"},
{"id":70104,"title":"Meco"},
{"id":18003,"title":"Mendez Alvaro"},
{"id":97200,"title":"Mirasierra - Paco de Lucia"},
{"id":35606,"title":"Mostoles"},
{"id":35607,"title":"Mostoles el Soto"},
{"id":18002,"title":"Nuevos Ministerios"},
{"id":35703,"title":"Orcasitas"},
{"id":37012,"title":"Parla"},
{"id":35011,"title":"Parque Polvoranca"},
{"id":10100,"title":"Pinar de las Rozas"},
{"id":60103,"title":"Pinto"},
{"id":18005,"title":"Piramides"},
{"id":97100,"title":"Pitis"},
{"id":10002,"title":"Pozuelo"},
{"id":10000,"title":"Principe Pio"},
{"id":35704,"title":"Puente Alcocer"},
{"id":12020,"title":"Puerto de Navacerrada"},
{"id":97201,"title":"Ramon y Cajal"},
{"id":18001,"title":"Recoletos"},
{"id":10205,"title":"Robledo de Chavela"},
{"id":60107,"title":"San Cristobal de los Angeles"},
{"id":60101,"title":"San Cristobal Industrial"},
{"id":70101,"title":"San Fernando"},
{"id":35604,"title":"San Jose de Valderas"},
{"id":10201,"title":"San Yago"},
{"id":70109,"title":"Santa Eugenia"},
{"id":10206,"title":"Santa Maria de la Alameda"},
{"id":18101,"title":"Sol"},
{"id":70112,"title":"Soto del Henares"},
{"id":70102,"title":"Torrejon de Ardoz"},
{"id":10103,"title":"Torrelodones"},
{"id":17004,"title":"Tres Cantos"},
{"id":19001,"title":"Universidad P.Comillas"},
{"id":98304,"title":"Valdebebas"},
{"id":19002,"title":"ValdelasFuentes"},
{"id":60104,"title":"Valdemoro"},
{"id":70001,"title":"Vallecas"},
{"id":70100,"title":"Vicalvaro"},
{"id":10200,"title":"Villalba"},
{"id":37001,"title":"Villaverde Alto"},
{"id":60100,"title":"Villaverde Bajo"},
{"id":10204,"title":"Zarzalejo"},
{"id":35009,"title":"Zarzaquemada"}
]
